[gd_scene load_steps=4 format=2]

[ext_resource path="res://glooRotated.png" type="Texture" id=1]
[ext_resource path="res://Enemy.gd" type="Script" id=2]

[sub_resource type="RectangleShape2D" id=1]

[node name="Enemy" type="KinematicBody2D"]
script = ExtResource( 2 )

[node name="CollisionShape2D" type="CollisionShape2D" parent="."]
shape = SubResource( 1 )
disabled = true

[node name="Sprite" type="Sprite" parent="."]
position = Vector2( -16, -16 )
texture = ExtResource( 1 )
centered = false
hframes = 2
